1 100 119
101 200 125
201 300 128
301 400 144
401 500 142
501 600 137
601 700 145
701 800 171
801 900 179
901 1000 174
1001 1100 169
1101 1200 182
1201 1300 177
1301 1400 177
1401 1500 172
1501 1600 167
1601 1700 180
1701 1800 180
1801 1900 175
1901 2000 175
2001 2100 157
2101 2200 170
2201 2300 183
2301 2400 183
2401 2500 209
2501 2600 178
2601 2700 191
2701 2800 173
2801 2900 173
2901 3000 217
3001 3100 186
3101 3200 199
3201 3300 168
3301 3400 181
3401 3500 181
3501 3600 194
3601 3700 207
3701 3800 238
3801 3900 176
3901 4000 189
4001 4100 189
4101 4200 189
4201 4300 202
4301 4400 215
4401 4500 184
4501 4600 184
4601 4700 184
4701 4800 197
4801 4900 179
4901 5000 210
5001 5100 179
5101 5200 179
5201 5300 192
5301 5400 192
5401 5500 192
5501 5600 236
5601 5700 205
5701 5800 205
5801 5900 218
5901 6000 187
6001 6100 187
6101 6200 262
6201 6300 187
6301 6400 200
6401 6500 169
6501 6600 244
6601 6700 182
6701 6800 182
6801 6900 182
6901 7000 257
7001 7100 195
7101 7200 195
7201 7300 177
7301 7400 208
7401 7500 239
7501 7600 208
7601 7700 177
7701 7800 221
7801 7900 190
7901 8000 252
8001 8100 190
8101 8200 190
8201 8300 190
8301 8400 234
8401 8500 203
8501 8600 203
8601 8700 203
8701 8800 216
8801 8900 185
8901 9000 247
9001 9100 185
9101 9200 198
9201 9300 260
9301 9400 198
9401 9500 198
9501 9600 198
9601 9700 185
9701 9800 198
9801 9900 242
9901 10000 180
10000 19999 279
20000 29999 308
30000 39999 324
40000 49999 314
50000 59999 340
60000 69999 335
70000 79999 351
80000 89999 333
90000 99999 333
100000 109999 354
110000 119999 349
120000 129999 344
130000 139999 344
140000 149999 375
150000 159999 383
160000 169999 370
170000 179999 347
180000 189999 365
190000 199999 360
200000 209999 373
210000 219999 386
220000 229999 368
230000 239999 443
240000 249999 368
250000 259999 363
260000 269999 407
270000 279999 407
280000 289999 389
290000 299999 371
300000 309999 371
310000 319999 384
320000 329999 384
330000 339999 366
340000 349999 441
350000 359999 379
360000 369999 410
370000 379999 423
380000 389999 436
390000 399999 405
400000 409999 405
410000 419999 449
420000 429999 418
430000 439999 400
440000 449999 369
450000 459999 387
460000 469999 444
470000 479999 382
480000 489999 413
490000 499999 426
500000 509999 426
510000 519999 470
520000 529999 408
530000 539999 377
540000 549999 452
550000 559999 421
560000 569999 421
570000 579999 390
580000 589999 434
590000 599999 403
600000 609999 403
610000 619999 447
620000 629999 509
630000 639999 416
640000 649999 416
650000 659999 429
660000 669999 442
670000 679999 385
680000 689999 398
690000 699999 442
700000 709999 504
710000 719999 411
720000 729999 411
730000 739999 424
740000 749999 393
750000 759999 424
760000 769999 468
770000 779999 437
780000 789999 406
790000 799999 468
800000 809999 406
810000 819999 450
820000 829999 450
830000 839999 525
840000 849999 419
850000 859999 419
860000 869999 388
870000 879999 432
880000 889999 445
890000 899999 370
900000 999999 507
10 1 20
1100 1000 169
999999 900000 507
10 10 7
5000 5000 29
999999 999999 259
